4301_CORDIC/cordic_correct/cordic_correct/cordic.sim/sim_1/behav/simulate.log
Vivado Simulator 2017.2
Time resolution is 1 ps
i=xxxx, x=xxxxxxxxxxxxxxxx, y=xxxxxxxxxxxxxxxx    0
i=0000, x=0010011011011101, y=0000000000000000    0
i=0000, x=0001001101101110, y=0000000000000000    0
i=0000, x=0000100110110111, y=0000000000000000    0
i=0000, x=0000010011011011, y=0000000000000000    0
i=0000, x=0000001001101101, y=0000000000000000    0
i=0000, x=0000000100110110, y=0000000000000000    0
i=0000, x=0000000010011011, y=0000000000000000    0
i=0000, x=0000000001001101, y=0000000000000000    0
i=0000, x=0000000000100110, y=0000000000000000    0
i=0000, x=0000000000010011, y=0000000000000000    0
i=0000, x=0000000000001001, y=0000000000000000    0
i=0000, x=0000000000000100, y=0000000000000000    0
i=0000, x=0000000000000010, y=0000000000000000    0
i=0000, x=0000000000000001, y=0000000000000000    0
i=0000, x=0000000000000000, y=0000000000000000    0
i=0001, x=0010011011011101, y=0010011011011101    0
i=0001, x=0001001101101110, y=0001001101101110    0
i=0001, x=0000100110110111, y=0000100110110111    0
i=0001, x=0000010011011011, y=0000010011011011    0
i=0001, x=0000001001101101, y=0000001001101101    0
i=0001, x=0000000100110110, y=0000000100110110    0
i=0001, x=0000000010011011, y=0000000010011011    0
i=0001, x=0000000001001101, y=0000000001001101    0
i=0001, x=0000000000100110, y=0000000000100110    0
i=0001, x=0000000000010011, y=0000000000010011    0
i=0001, x=0000000000001001, y=0000000000001001    0
i=0001, x=0000000000000100, y=0000000000000100    0
i=0001, x=0000000000000010, y=0000000000000010    0
i=0001, x=0000000000000001, y=0000000000000001    0
i=0001, x=0000000000000000, y=0000000000000000    0
i=0010, x=0011101001001011, y=0001001101101111    0
i=0010, x=0001110100100101, y=0000100110110111    0
i=0010, x=0000111010010010, y=0000010011011011    0
i=0010, x=0000011101001001, y=0000001001101101    0
i=0010, x=0000001110100100, y=0000000100110110    0
i=0010, x=0000000111010010, y=0000000010011011    0
i=0010, x=0000000011101001, y=0000000001001101    0
i=0010, x=0000000001110100, y=0000000000100110    0
i=0010, x=0000000000111010, y=0000000000010011    0
i=0010, x=0000000000011101, y=0000000000001001    0
i=0010, x=0000000000001110, y=0000000000000100    0
i=0010, x=0000000000000111, y=0000000000000010    0
i=0010, x=0000000000000011, y=0000000000000001    0
i=0010, x=0000000000000001, y=0000000000000000    0
i=0010, x=0000000000000000, y=0000000000000000    0
i=0011, x=0011111100100110, y=0000010011011101    0
i=0011, x=0001111110010011, y=0000001001101110    0
i=0011, x=0000111111001001, y=0000000100110111    0
i=0011, x=0000011111100100, y=0000000010011011    0
i=0011, x=0000001111110010, y=0000000001001101    0
i=0011, x=0000000111111001, y=0000000000100110    0
i=0011, x=0000000011111100, y=0000000000010011    0
i=0011, x=0000000001111110, y=0000000000001001    0
i=0011, x=0000000000111111, y=0000000000000100    0
i=0011, x=0000000000011111, y=0000000000000010    0
i=0011, x=0000000000001111, y=0000000000000001    0
i=0011, x=0000000000000111, y=0000000000000000    0
i=0011, x=0000000000000011, y=0000000000000000    0
i=0011, x=0000000000000001, y=0000000000000000    0
i=0011, x=0000000000000000, y=0000000000000000    0
i=0100, x=0011111111000001, y=1111110011111001    0
i=0100, x=0001111111100000, y=1111111001111100    0
i=0100, x=0000111111110000, y=1111111100111110    0
i=0100, x=0000011111111000, y=1111111110011111    0
i=0100, x=0000001111111100, y=1111111111001111    0
i=0100, x=0000000111111110, y=1111111111100111    0
i=0100, x=0000000011111111, y=1111111111110011    0
i=0100, x=0000000001111111, y=1111111111111001    0
i=0100, x=0000000000111111, y=1111111111111100    0
i=0100, x=0000000000011111, y=1111111111111110    0
i=0100, x=0000000000001111, y=1111111111111111    0
i=0100, x=0000000000000111, y=1111111111111111    0
i=0100, x=0000000000000011, y=1111111111111111    0
i=0100, x=0000000000000001, y=1111111111111111    0
i=0100, x=0000000000000000, y=1111111111111111    0
i=0101, x=0011111111110010, y=0000000011110101    0
i=0101, x=0001111111111001, y=0000000001111010    0
i=0101, x=0000111111111100, y=0000000000111101    0
i=0101, x=0000011111111110, y=0000000000011110    0
i=0101, x=0000001111111111, y=0000000000001111    0
i=0101, x=0000000111111111, y=0000000000000111    0
i=0101, x=0000000011111111, y=0000000000000011    0
i=0101, x=0000000001111111, y=0000000000000001    0
i=0101, x=0000000000111111, y=0000000000000000    0
i=0101, x=0000000000011111, y=0000000000000000    0
i=0101, x=0000000000001111, y=0000000000000000    0
i=0101, x=0000000000000111, y=0000000000000000    0
i=0101, x=0000000000000011, y=0000000000000000    0
i=0101, x=0000000000000001, y=0000000000000000    0
i=0101, x=0000000000000000, y=0000000000000000    0
i=0110, x=0011111111111001, y=1111111011110110    0
i=0110, x=0001111111111100, y=1111111101111011    0
i=0110, x=0000111111111110, y=1111111110111101    0
i=0110, x=0000011111111111, y=1111111111011110    0
i=0110, x=0000001111111111, y=1111111111101111    0
i=0110, x=0000000111111111, y=1111111111110111    0
i=0110, x=0000000011111111, y=1111111111111011    0
i=0110, x=0000000001111111, y=1111111111111101    0
i=0110, x=0000000000111111, y=1111111111111110    0
i=0110, x=0000000000011111, y=1111111111111111    0
i=0110, x=0000000000001111, y=1111111111111111    0
i=0110, x=0000000000000111, y=1111111111111111    0
i=0110, x=0000000000000011, y=1111111111111111    0
i=0110, x=0000000000000001, y=1111111111111111    0
i=0110, x=0000000000000000, y=1111111111111111    0
i=0111, x=0011111111111110, y=1111111111110101    0
i=0111, x=0001111111111111, y=1111111111111010    0
i=0111, x=0000111111111111, y=1111111111111101    0
i=0111, x=0000011111111111, y=1111111111111110    0
i=0111, x=0000001111111111, y=1111111111111111    0
i=0111, x=0000000111111111, y=1111111111111111    0
i=0111, x=0000000011111111, y=1111111111111111    0
i=0111, x=0000000001111111, y=1111111111111111    0
i=0111, x=0000000000111111, y=1111111111111111    0
i=0111, x=0000000000011111, y=1111111111111111    0
i=0111, x=0000000000001111, y=1111111111111111    0
i=0111, x=0000000000000111, y=1111111111111111    0
i=0111, x=0000000000000011, y=1111111111111111    0
i=0111, x=0000000000000001, y=1111111111111111    0
i=0111, x=0000000000000000, y=1111111111111111    0
i=1000, x=0011111111111111, y=0000000001110100    0
i=1000, x=0001111111111111, y=0000000000111010    0
i=1000, x=0000111111111111, y=0000000000011101    0
i=1000, x=0000011111111111, y=0000000000001110    0
i=1000, x=0000001111111111, y=0000000000000111    0
i=1000, x=0000000111111111, y=0000000000000011    0
i=1000, x=0000000011111111, y=0000000000000001    0
i=1000, x=0000000001111111, y=0000000000000000    0
i=1000, x=0000000000111111, y=0000000000000000    0
i=1000, x=0000000000011111, y=0000000000000000    0
i=1000, x=0000000000001111, y=0000000000000000    0
i=1000, x=0000000000000111, y=0000000000000000    0
i=1000, x=0000000000000011, y=0000000000000000    0
i=1000, x=0000000000000001, y=0000000000000000    0
i=1000, x=0000000000000000, y=0000000000000000    0
i=1001, x=0011111111111111, y=0000000000110101    0
i=1001, x=0001111111111111, y=0000000000011010    0
i=1001, x=0000111111111111, y=0000000000001101    0
i=1001, x=0000011111111111, y=0000000000000110    0
i=1001, x=0000001111111111, y=0000000000000011    0
i=1001, x=0000000111111111, y=0000000000000001    0
i=1001, x=0000000011111111, y=0000000000000000    0
i=1001, x=0000000001111111, y=0000000000000000    0
i=1001, x=0000000000111111, y=0000000000000000    0
i=1001, x=0000000000011111, y=0000000000000000    0
i=1001, x=0000000000001111, y=0000000000000000    0
i=1001, x=0000000000000111, y=0000000000000000    0
i=1001, x=0000000000000011, y=0000000000000000    0
i=1001, x=0000000000000001, y=0000000000000000    0
i=1001, x=0000000000000000, y=0000000000000000    0
i=1010, x=0011111111111111, y=0000000000010110    0
i=1010, x=0001111111111111, y=0000000000001011    0
i=1010, x=0000111111111111, y=0000000000000101    0
i=1010, x=0000011111111111, y=0000000000000010    0
i=1010, x=0000001111111111, y=0000000000000001    0
i=1010, x=0000000111111111, y=00