4301_CORDIC/cordic/cordic.sim/sim_1/behav/simulate.log
Vivado Simulator 2016.2
Time resolution is 1 ps
i=xxxx, x=xxxxxxxxxxxxxxxx, y=xxxxxxxxxxxxxxxx, z=xxxxxxxxxxxxxxxx
i=0000, x=0010011011011101, y=0000000000000000, z=0110010010001000
i=0000, x=0001001101101110, y=0000000000000000, z=0011001001000100
i=0000, x=0000100110110111, y=0000000000000000, z=0001100100100010
i=0000, x=0000010011011011, y=0000000000000000, z=0000110010010001
i=0000, x=0000001001101101, y=0000000000000000, z=0000011001001000
i=0000, x=0000000100110110, y=0000000000000000, z=0000001100100100
i=0000, x=0000000010011011, y=0000000000000000, z=0000000110010010
i=0000, x=0000000001001101, y=0000000000000000, z=0000000011001001
i=0000, x=0000000000100110, y=0000000000000000, z=0000000001100100
i=0000, x=0000000000010011, y=0000000000000000, z=0000000000110010
i=0000, x=0000000000001001, y=0000000000000000, z=0000000000011001
i=0000, x=0000000000000100, y=0000000000000000, z=0000000000001100
i=0000, x=0000000000000010, y=0000000000000000, z=0000000000000110
i=0000, x=0000000000000001, y=0000000000000000, z=0000000000000011
i=0000, x=0000000000000000, y=0000000000000000, z=0000000000000001
i=0000, x=0000000000000000, y=0000000000000000, z=0000000000000000
i=0001, x=0010011011011101, y=0010011011011101, z=0011001001000100
i=0001, x=0001001101101110, y=0001001101101110, z=0001100100100010
i=0001, x=0000100110110111, y=0000100110110111, z=0000110010010001
i=0001, x=0000010011011011, y=0000010011011011, z=0000011001001000
i=0001, x=0000001001101101, y=0000001001101101, z=0000001100100100
i=0001, x=0000000100110110, y=0000000100110110, z=0000000110010010
i=0001, x=0000000010011011, y=0000000010011011, z=0000000011001001
i=0001, x=0000000001001101, y=0000000001001101, z=0000000001100100
i=0001, x=0000000000100110, y=0000000000100110, z=0000000000110010
i=0001, x=0000000000010011, y=0000000000010011, z=0000000000011001
i=0001, x=0000000000001001, y=0000000000001001, z=0000000000001100
i=0001, x=0000000000000100, y=0000000000000100, z=0000000000000110
i=0001, x=0000000000000010, y=0000000000000010, z=0000000000000011
i=0001, x=0000000000000001, y=0000000000000001, z=0000000000000001
i=0001, x=0000000000000000, y=0000000000000000, z=0000000000000000
i=0010, x=0001001101101111, y=0011101001001011, z=0001010010011000
i=0010, x=0000100110110111, y=0001110100100101, z=0000101001001100
i=0010, x=0000010011011011, y=0000111010010010, z=0000010100100110
i=0010, x=0000001001101101, y=0000011101001001, z=0000001010010011
i=0010, x=0000000100110110, y=0000001110100100, z=0000000101001001
i=0010, x=0000000010011011, y=0000000111010010, z=0000000010100100
i=0010, x=0000000001001101, y=0000000011101001, z=0000000001010010
i=0010, x=0000000000100110, y=0000000001110100, z=0000000000101001
i=0010, x=0000000000010011, y=0000000000111010, z=0000000000010100
i=0010, x=0000000000001001, y=0000000000011101, z=0000000000001010
i=0010, x=0000000000000100, y=0000000000001110, z=0000000000000101
i=0010, x=0000000000000010, y=0000000000000111, z=0000000000000010
i=0010, x=0000000000000001, y=0000000000000011, z=0000000000000001
i=0010, x=0000000000000000, y=0000000000000001, z=0000000000000000
i=0010, x=0000000000000000, y=0000000000000000, z=0000000000000000
i=0011, x=0000010011011101, y=0011111100100110, z=0000010011101010
i=0011, x=0000001001101110, y=0001111110010011, z=0000001001110101
i=0011, x=0000000100110111, y=0000111111001001, z=0000000100111010
i=0011, x=0000000010011011, y=0000011111100100, z=0000000010011101
i=0011, x=0000000001001101, y=0000001111110010, z=0000000001001110
i=0011, x=0000000000100110, y=0000000111111001, z=0000000000100111
i=0011, x=0000000000010011, y=0000000011111100, z=0000000000010011
i=0011, x=0000000000001001, y=0000000001111110, z=0000000000001001
i=0011, x=0000000000000100, y=0000000000111111, z=0000000000000100
i=0011, x=0000000000000010, y=0000000000011111, z=0000000000000010
i=0011, x=0000000000000001, y=0000000000001111, z=0000000000000001
i=0011, x=0000000000000000, y=0000000000000111, z=0000000000000000
i=0011, x=0000000000000000, y=0000000000000011, z=0000000000000000
i=0011, x=0000000000000000, y=0000000000000001, z=0000000000000000
i=0011, x=0000000000000000, y=0000000000000000, z=0000000000000000
i=0100, x=1111110011111001, y=0011111111000001, z=1111110011110101
i=0100, x=1111111001111100, y=0001111111100000, z=0111111001111010
i=0100, x=1111111100111110, y=0000111111110000, z=0011111100111101
i=0100, x=1111111110011111, y=0000011111111000, z=0001111110011110
i=0100, x=1111111111001111, y=0000001111111100, z=0000111111001111
i=0100, x=1111111111100111, y=0000000111111110, z=0000011111100111
i=0100, x=1111111111110011, y=0000000011111111, z=0000001111110011
i=0100, x=1111111111111001, y=0000000001111111, z=0000000111111001
i=0100, x=1111111111111100, y=0000000000111111, z=0000000011111100
i=0100, x=1111111111111110, y=0000000000011111, z=0000000001111110
i=0100, x=1111111111111111, y=0000000000001111, z=0000000000111111
i=0100, x=1111111111111111, y=0000000000000111, z=0000000000011111
i=0100, x=1111111111111111, y=0000000000000011, z=0000000000001111
i=0100, x=1111111111111111, y=0000000000000001, z=0000000000000111
i=0100, x=1111111111111111, y=0000000000000000, z=0000000000000011
i=0100, x=1111111111111111, y=0000000000000000, z=0000000000000001
i=0100, x=1111111111111111, y=0000000000000000, z=0000000000000000
i=0101, x=0000000011110101, y=0011111111110010, z=0000000011110100
i=0101, x=0000000001111010, y=0001111111111001, z=0000000001111010
i=0101, x=0000000000111101, y=0000111111111100, z=0000000000111101
i=0101, x=0000000000011110, y=0000011111111110, z=0000000000011110
i=0101, x=0000000000001111, y=0000001111111111, z=0000000000001111
i=0101, x=0000000000000111, y=0000000111111111, z=0000000000000111
i=0101, x=0000000000000011, y=0000000011111111, z=0000000000000011
i=0101, x=0000000000000001, y=0000000001111111, z=0000000000000001
i=0101, x=0000000000000000, y=0000000000111111, z=0000000000000000
i=0101, x=0000000000000000, y=0000000000011111, z=0000000000000000
i=0101, x=0000000000000000, y=0000000000001111, z=0000000000000000
i=0101, x=0000000000000000, y=0000000000000111, z=0000000000000000
i=0101, x=0000000000000000, y=0000000000000011, z=0000000000000000
i=0101, x=0000000000000000, y=0000000000000001, z=0000000000000000
i=0101, x=0000000000000000, y=0000000000000000, z=0000000000000000
i=0110, x=1111111011110110, y=0011111111111001, z=1111111011110100
i=0110, x=1111111101111011, y=0001111111111100, z=0111111101111010
i=0110, x=1111111110111101, y=0000111111111110, z=0011111110111101
i=0110, x=1111111111011110, y=0000011111111111, z=0001111111011110
i=0110, x=1111111111101111, y=0000001111111111, z=0000111111101111
i=0110, x=1111111111110111, y=0000000111111111, z=0000011111110111
i=0110, x=1111111111111011, y=0000000011111111, z=0000001111111011
i=0110, x=1111111111111101, y=0000000001111111, z=0000000111111101
i=0110, x=1111111111111110, y=0000000000111111, z=0000000011111110
i=0110, x=1111111111111111, y=0000000000011111, z=0000000001111111
i=0110, x=1111111111111111, y=0000000000001111, z=0000000000111111
i=0110, x=1111111111111111, y=0000000000000111, z=0000000000011111
i=0110, x=1111111111111111, y=0000000000000011, z=0000000000001111
i=0110, x=1111111111111111, y=0000000000000001, z=0000000000000111
i=0110, x=1111111111111111, y=0000000000000000, z=0000000000000011
i=0110, x=1111111111111111, y=0000000000000000, z=0000000000000001
i=0110, x=1111111111111111, y=0000000000000000, z=0000000000000000
i=0111, x=1111111111110101, y=0011111111111110, z=1111111111110100
i=0111, x=1111111111111010, y=0001111111111111, z=0111111111111010
i=0111, x=1111111111111101, y=0000111111111111, z=0011111111111101
i=0111, x=1111111111111110, y=0000011111111111, z=0001111111111110
i=0111, x=1111111111111111, y=0000001111111111, z=0000111111111111
i=0111, x=1111111111111111, y=0000000111111111, z=0000011111111111
i=0111, x=1111111111111111, y=0000000011111111, z=0000001111111111
i=0111, x=1111111111111111, y=0000000001111111, z=0000000111111111
i=0111, x=1111111111111111, y=0000000000111111, z=0000000011111111
i=0111, x=1111111111111111, y=0000000000011111, z=0000000001111111
i=0111, x=1111111111111111, y=0000000000001111, z=0000000000111111
i=0111, x=1111111111111111, y=0000000000000111, z=0000000000011111
i=0111, x=1111111111111111, y=0000000000000011, z=0000000000001111
i=0111, x=1111111111111111, y=0000000000000001, z=0000000000000111
i=0111, x=1111111111111111, y=0000000000000000, z=0000000000000011
i=0111, x=1111111111111111, y=0000000000000000, z=0000000000000001
i=0111, x=1111111111111111, y=0000000000000000, z=0000000000000000
i=1000, x=0000000001110100, y=0011111111111111, z=0000000001110100
i=1000, x=0000000000111010, y=0001111111111111, z=0000000000111010
i=1000, x=0000000000011101, y=0000111111111111, z=0000000000011101
i=1000, x=0000000000001110, y=0000011111111111, z=0000000000001110
i=1000, x=0000000000000111, y=0000001111111111, z=0000000000000111
i=1000, x=0000000000000011, y=0000000111111111, z=0000000000000011
i=1000, x=0000000000000001, y=0000000011111111, z=0000000000000001
i=1000, x=0000000000000000, y=0000000001111111, z=0000000000000000
i=1000, x=0000000000000000, y=0000000000111111, z=0000000000000000
i=1000, x=0000000000000000, y=0000000000011111, z=0000000000000000
i=1000, x=0000000000000000, y=0000000000001111, z=0000000000000000
i=1000, x=0000000000000000, y=0000000000000111, z=0000000000000000
i=1000, x=0000000000000000, y=0000000000000011, z=0000000000000000
i=1000, x=0000000000000000, y=0000000000000001, z=0000000000000000
i=1000, x=0000000000000000, y=0000000000000000, z=0000000000000000
i=1001, x=0000000000110101, y=0011111111111111, z=0000000000110100
i=1001, x=0000000000011010, y=0001111111111111, z=0000000000011010
i=1001, x=0000000000001101, y=0000111111111111, z=0000000000001101
i=1001, x=0000000000000110, y=0000011111111111, z=0000000000000110
i=1001, x=0000000000000011, y=0000001111111111, z=0000000000000011
i=1001, x=0000000000000001, y=0000000111111111, z=0000000000000001
i=1001, x=0000000000000000, y=0000000011111111, z=0000000000000000
i=1001, x=0000000000000000, y=0000000001111111, z=0000000000000000
i=1001, x=0000000000000000, y=0000000000111111, z=0000000000000000
i=1001, x=0000000000000000, y=0000000000011111, z=0000000000000000
i=1001, x=0000000000000000, y=0000000000001111, z=0000000000000000
i=1001, x=0000000000000000, y=0000000000000111, z=0000000000000000
i=1001, x=0000000000000000, y=0000000000000011, z=0000000000000000
i=1001, x=0000000000000000, y=0000000000000001, z=0000000000000000
i=1001, x=0000000000000000, y=0000000000000000, z=0000000000000000
i=1010, x=0000000000010110, y=0011111111111111, z=0000000000010100
i=1010, x=0000000000001011, y=0001111111111111, z=0000000000001010
i=1010, x=0000000000000101, y=0000111111111111, z=0000000000000101
i=1010, x=0000000000000010, y=0000011111111111, z=0000000000000010
i=1010, x=0000000000000001, y=0000001111111111, z=0000000000000001
i=1010, x=0000000000000000, y=0000000111111111, z=0000000000000000
i=1010, x=0000000000000000, y=0000000011111111, z=0000000000000000
i=1010, x=0000000000000000, y=0000000001111111, z=0000000000000000
i=1010, x=0000000000000000, y=0000000000111111, z=0000000000000000
i=1010, x=0000000000000000, y=0000000000011111, z=0000000000000000
i=1010, x=0000000000000000, y=0000000000001111, z=0000000000000000
i=1010, x=0000000000000000, y=0000000000000111, z=0000000000000000
i=1010, x=0000000000000000, y=0000000000000011, z=0000000000000000
i=1010, x=0000000000000000, y=0000000000000001, z=0000000000000000
i=1010, x=0000000000000000, y=0000000000000000, z=0000000000000000
i=1011, x=0000000000000111, y=0011111111111111, z=0000000000000100
i=1011, x=0000000000000011, y=0001111111111111, z=0000000000000010
i=1011, x=0000000000000001, y=0000111111111111, z=0000000000000001
i=1011, x=0000000000000000, y=0000011111111111, z=0000000000000000
i=1011, x=0000000000000000, y=0000001111111111, z=0000000000000000
i=1011, x=0000000000000000, y=0000000111111111, z=0000000000000000
i=1011, x=0000000000000000, y=0000000011111111, z=0000000000000000
i=1011, x=0000000000000000, y=0000000001111111, z=0000000000000000
i=1011, x=0000000000000000, y=0000000000111111, z=0000000000000000
i=1011, x=0000000000000000, y=0000000000011111, z=0000000000000000
i=1011, x=0000000000000000, y=0000000000001111, z=0000000000000000
i=1011, x=0000000000000000, y=0000000000000111, z=0000000000000000
i=1011, x=0000000000000000, y=0000000000000011, z=0000000000000000
i=1011, x=0000000000000000, y=0000000000000001, z=0000000000000000
i=1011, x=0000000000000000, y=0000000000000000, z=0000000000000000
i=1100, x=0000000000000000, y=0011111111111111, z=1111111111111100
i=1100, x=0000000000000000, y=0001111111111111, z=0111111111111110
i=1100, x=0000000000000000, y=0000111111111111, z=0011111111111111
i=1100, x=0000000000000000, y=0000011111111111, z=0001111111111111
i=1100, x=0000000000000000, y=0000001111111111, z=0000111111111111
i=1100, x=0000000000000000, y=0000000111111111, z=0000011111111111
i=1100, x=0000000000000000, y=0000000011111111, z=0000001111111111
i=1100, x=0000000000000000, y=0000000001111111, z=0000000111111111
i=1100, x=0000000000000000, y=0000000000111111, z=0000000011111111
i=1100, x=0000000000000000, y=0000000000011111, z=0000000001111111
i=1100, x=0000000000000000, y=0000000000001111, z=0000000000111111
i=1100, x=0000000000000000, y=0000000000000111, z=0000000000011111
i=1100, x=0000000000000000, y=0000000000000011, z=0000000000001111
i=1100, x=0000000000000000, y=0000000000000001, z=0000000000000111
i=1100, x=0000000000000000, y=0000000000000000, z=0000000000000011
i=1100, x=0000000000000000, y=0000000000000000, z=0000000000000001
i=1100, x=0000000000000000, y=0000000000000000, z=0000000000000000
i=1101, x=0000000000000011, y=0011111111111111, z=0000000000000000
i=0000, x=0010011011011101, y=0000000000000000, z=0011001001000100
i=0000, x=0001001101101110, y=0000000000000000, z=0001100100100010
i=0000, x=0000100110110111, y=0000000000000000, z=0000110010010001
i=0000, x=0000010011011011, y=0000000000000000, z=0000011001001000
i=0000, x=0000001001101101, y=0000000000000000, z=0000001100100100
i=0000, x=0000000100110110, y=0000000000000000, z=0000000110010010
i=0000, x=0000000010011011, y=0000000000000000, z=0000000011001001
i=0000, x=0000000001001101, y=0000000000000000, z=0000000001100100
i=0000, x=0000000000100110, y=0000000000000000, z=0000000000110010
i=0000, x=0000000000010011, y=0000000000000000, z=0000000000011001
i=0000, x=0000000000001001, y=0000000000000000, z=0000000000001100
i=0000, x=0000000000000100, y=0000000000000000, z=0000000000000110
i=0000, x=0000000000000010, y=0000000000000000, z=0000000000000011
i=0000, x=0000000000000001, y=0000000000000000, z=0000000000000001
i=0000, x=0000000000000000, y=0000000000000000, z=0000000000000000
i=0001, x=0010011011011101, y=0010011011011101, z=0000000000000000
i=0001, x=0001001101101110, y=0001001101101110, z=0000000000000000
i=0001, x=0000100110110111, y=0000100110110111, z=0000000000000000
i=0001, x=0000010011011011, y=0000010011011011, z=0000000000000000
i=0001, x=0000001001101101, y=0000001001101101, z=0000000000000000
i=0001, x=0000000100110110, y=0000000100110110, z=0000000000000000
i=0001, x=0000000010011011, y=0000000010011011, z=0000000000000000
i=0001, x=0000000001001101, y=0000000001001101, z=0000000000000000
i=0001, x=0000000000100110, y=0000000000100110, z=0000000000000000
i=0001, x=0000000000010011, y=0000000000010011, z=0000000000000000
i=0001, x=0000000000001001, y=0000000000001001, z=0000000000000000
i=0001, x=0000000000000100, y=0000000000000100, z=0000000000000000
i=0001, x=0000000000000010, y=0000000000000010, z=0000000000000000
i=0001, x=0000000000000001, y=0000000000000001, z=0000000000000000
i=0001, x=0000000000000000, y=0000000000000000, z=0000000000000000
i=0010, x=0001001101101111, y=0011101001001011, z=1110001001010100
i=0010, x=0000100110110111, y=0001110100100101, z=0111000100101010
i=0010, x=0000010011011011, y=0000111010010010, z=0011100010010101
i=0010, x=0000001001101101, y=0000011101001001, z=0001110001001010
i=0010, x=0000000100110110, y=0000001110100100, z=0000111000100101
i=0010, x=0000000010011011, y=0000000111010010, z=0000011100010010
i=0010, x=0000000001001101, y=0000000011101001, z=0000001110001001
i=0010, x=0000000000100110, y=0000000001110100, z=0000000111000100
i=0010, x=0000000000010011, y=0000000000111010, z=0000000011100010
i=0010, x=0000000000001001, y=0000000000011101, z=0000000001110001
i=0010, x=0000000000000100, y=0000000000001110, z=0000000000111000
i=0010, x=0000000000000010, y=0000000000000111, z=0000000000011100
i=0010, x=0000000000000001, y=0000000000000011, z=0000000000001110
i=0010, x=0000000000000000, y=0000000000000001, z=0000000000000111
i=0010, x=0000000000000000, y=0000000000000000, z=0000000000000011
i=0010, x=0000000000000000, y=0000000000000000, z=0000000000000001
i=0010, x=0000000000000000, y=0000000000000000, z=0000000000000000
i=0011, x=0010001000000001, y=0011010101110000, z=1111001000000010
i=0011, x=0001000100000000, y=0001101010111000, z=0111100100000001
i=0011, x=0000100010000000, y=0000110101011100, z=0011110010000000
i=0011, x=0000010001000000, y=0000011010101110, z=0001111001000000
i=0011, x=0000001000100000, y=0000001101010111, z=0000111100100000
i=0011, x=0000000100010000, y=0000000110101011, z=0000011110010000
i=0011, x=0000000010001000, y=0000000011010101, z=0000001111001000
i=0011, x=0000000001000100, y=0000000001101010, z=0000000111100100
i=0011, x=0000000000100010, y=0000000000110101, z=0000000011110010
i=0011, x=0000000000010001, y=0000000000011010, z=0000000001111001
i=0011, x=0000000000001000, y=0000000000001101, z=0000000000111100
i=0011, x=0000000000000100, y=0000000000000110, z=0000000000011110
i=0011, x=0000000000000010, y=0000000000000011, z=0000000000001111
i=0011, x=0000000000000001, y=0000000000000001, z=0000000000000111
i=0011, x=0000000000000000, y=0000000000000000, z=0000000000000011
i=0011, x=0000000000000000, y=0000000000000000, z=0000000000000001
i=0011, x=0000000000000000, y=0000000000000000, z=0000000000000000
i=0100, x=0010100010101111, y=0011000100110000, z=1111100111110111
i=0100, x=0001010001010111, y=0001100010011000, z=0111110011111011
i=0100, x=0000101000101011, y=0000110001001100, z=0011111001111101
i=0100, x=0000010100010101, y=0000011000100110, z=0001111100111110
i=0100, x=0000001010001010, y=0000001100010011, z=0000111110011111
i=0100, x=0000000101000101, y=0000000110001001, z=0000011111001111
i=0100, x=0000000010100010, y=0000000011000100, z=0000001111100111
i=0100, x=0000000001010001, y=0000000001100010, z=0000000111110011
i=0100, x=0000000000101000, y=0000000000110001, z=0000000011111001
i=0100, x=0000000000010100, y=0000000000011000, z=0000000001111100
i=0100, x=0000000000001010, y=0000000000001100, z=0000000000111110
i=0100, x=0000000000000101, y=0000000000000110, z=0000000000011111
i=0100, x=0000000000000010, y=0000000000000011, z=0000000000001111
i=0100, x=0000000000000001, y=0000000000000001, z=0000000000000111
i=0100, x=0000000000000000, y=0000000000000000, z=0000000000000011
i=0100, x=0000000000000000, y=0000000000000000, z=0000000000000001
i=0100, x=0000000000000000, y=0000000000000000, z=0000000000000000
i=0101, x=0010101111000010, y=0010111010100110, z=1111110111110110
i=0101, x=0001010111100001, y=0001011101010011, z=0111111011111011
i=0101, x=0000101011110000, y=0000101110101001, z=0011111101111101
i=0101, x=0000010101111000, y=0000010111010100, z=0001111110111110
i=0101, x=0000001010111100, y=0000001011101010, z=0000111111011111
i=0101, x=0000000101011110, y=0000000101110101, z=0000011111101111
i=0101, x=0000000010101111, y=0000000010111010, z=0000001111110111
i=0101, x=0000000001010111, y=0000000001011101, z=0000000111111011
i=0101, x=0000000000101011, y=0000000000101110, z=0000000011111101
i=0101, x=0000000000010101, y=0000000000010111, z=0000000001111110
i=0101, x=0000000000001010, y=0000000000001011, z=0000000000111111
i=0101, x=0000000000000101, y=0000000000000101, z=0000000000011111
i=0101, x=0000000000000010, y=0000000000000010, z=0000000000001111
i=0101, x=0000000000000001, y=0000000000000001, z=0000000000000111
i=0101, x=0000000000000000, y=0000000000000000, z=0000000000000011
i=0101, x=0000000000000000, y=0000000000000000, z=0000000000000001
i=0101, x=0000000000000000, y=0000000000000000, z=0000000000000000
i=0110, x=0010110100110111, y=0010110101001000, z=1111111111110110
i=0110, x=0001011010011011, y=0001011010100100, z=0111111111111011
i=0110, x=0000101101001101, y=0000101101010010, z=0011111111111101
i=0110, x=0000010110100110, y=0000010110101001, z=0001111111111110
i=0110, x=0000001011010011, y=0000001011010100, z=0000111111111111
i=0110, x=0000000101101001, y=0000000101101010, z=0000011111111111
i=0110, x=0000000010110100, y=0000000010110101, z=0000001111111111
i=0110, x=0000000001011010, y=0000000001011010, z=0000000111111111
i=0110, x=0000000000101101, y=0000000000101101, z=0000000011111111
i=0110, x=0000000000010110, y=0000000000010110, z=0000000001111111
i=0110, x=0000000000001011, y=0000000000001011, z=0000000000111111
i=0110, x=0000000000000101, y=0000000000000101, z=0000000000011111
i=0110, x=0000000000000010, y=0000000000000010, z=0000000000001111
i=0110, x=0000000000000001, y=0000000000000001, z=0000000000000111
i=0110, x=0000000000000000, y=0000000000000000, z=0000000000000011
i=0110, x=0000000000000000, y=0000000000000000, z=0000000000000001
i=0110, x=0000000000000000, y=0000000000000000, z=0000000000000000
i=0111, x=0010110111101100, y=0010110010010100, z=0000000011110110
i=0111, x=0001011011110110, y=0001011001001010, z=0000000001111011
i=0111, x=0000101101111011, y=0000101100100101, z=0000000000111101
i=0111, x=0000010110111101, y=0000010110010010, z=0000000000011110
i=0111, x=0000001011011110, y=0000001011001001, z=0000000000001111
i=0111, x=0000000101101111, y=0000000101100100, z=0000000000000111
i=0111, x=0000000010110111, y=0000000010110010, z=0000000000000011
i=0111, x=0000000001011011, y=0000000001011001, z=0000000000000001
i=0111, x=0000000000101101, y=0000000000101100, z=0000000000000000
i=0111, x=0000000000010110, y=0000000000010110, z=0000000000000000
i=0111, x=0000000000001011, y=0000000000001011, z=0000000000000000
i=0111, x=0000000000000101, y=0000000000000101, z=0000000000000000
i=0111, x=0000000000000010, y=0000000000000010, z=0000000000000000
i=0111, x=0000000000000001, y=0000000000000001, z=0000000000000000
i=0111, x=0000000000000000, y=0000000000000000, z=0000000000000000
i=1000, x=0010110110010011, y=0010110011101111, z=0000000001110110
i=1000, x=0001011011001001, y=0001011001110111, z=0000000000111011
i=1000, x=0000101101100100, y=0000101100111011, z=0000000000011101
i=1000, x=0000010110110010, y=0000010110011101, z=0000000000001110
i=1000, x=0000001011011001, y=0000001011001110, z=0000000000000111
i=1000, x=0000000101101100, y=0000000101100111, z=0000000000000011
i=1000, x=0000000010110110, y=0000000010110011, z=0000000000000001
i=1000, x=0000000001011011, y=0000000001011001, z=0000000000000000
i=1000, x=0000000000101101, y=0000000000101100, z=0000000000000000
i=1000, x=0000000000010110, y=0000000000010110, z=0000000000000000
i=1000, x=0000000000001011, y=0000000000001011, z=0000000000000000
i=1000, x=0000000000000101, y=0000000000000101, z=0000000000000000
i=1000, x=0000000000000010, y=0000000000000010, z=0000000000000000
i=1000, x=0000000000000001, y=0000000000000001, z=0000000000000000
i=1000, x=0000000000000000, y=0000000000000000, z=0000000000000000
i=1001, x=0010110101100111, y=0010110100011100, z=0000000000110110
i=1001, x=0001011010110011, y=0001011010001110, z=0000000000011011
i=1001, x=0000101101011001, y=0000101101000111, z=0000000000001101
i=1001, x=0000010110101100, y=0000010110100011, z=0000000000000110
i=1001, x=0000001011010110, y=0000001011010001, z=0000000000000011
i=1001, x=0000000101101011, y=0000000101101000, z=0000000000000001
i=1001, x=0000000010110101, y=0000000010110100, z=0000000000000000
i=1001, x=0000000001011010, y=0000000001011010, z=0000000000000000
i=1001, x=0000000000101101, y=0000000000101101, z=0000000000000000
i=1001, x=0000000000010110, y=0000000000010110, z=0000000000000000
i=1001, x=0000000000001011, y=0000000000001011, z=0000000000000000
i=1001, x=0000000000000101, y=0000000000000101, z=0000000000000000
i=1001, x=0000000000000010, y=0000000000000010, z=0000000000000000
i=1001, x=0000000000000001, y=0000000000000001, z=0000000000000000
i=1001, x=0000000000000000, y=0000000000000000, z=0000000000000000
i=1010, x=0010110101010001, y=0010110100110010, z=0000000000010110
i=1010, x=0001011010101000, y=0001011010011001, z=0000000000001011
i=1010, x=0000101101010100, y=0000101101001100, z=0000000000000101
i=1010, x=0000010110101010, y=0000010110100110, z=0000000000000010
i=1010, x=0000001011010101, y=0000001011010011, z=0000000000000001
i=1010, x=0000000101101010, y=0000000101101001, z=0000000000000000
i=1010, x=0000000010110101, y=0000000010110100, z=0000000000000000
i=1010, x=0000000001011010, y=0000000001011010, z=0000000000000000
i=1010, x=0000000000101101, y=0000000000101101, z=0000000000000000
i=1010, x=0000000000010110, y=0000000000010110, z=0000000000000000
i=1010, x=0000000000001011, y=0000000000001011, z=0000000000000000
i=1010, x=0000000000000101, y=0000000000000101, z=0000000000000000
i=1010, x=0000000000000010, y=0000000000000010, z=0000000000000000
i=1010, x=0000000000000001, y=0000000000000001, z=0000000000000000
i=1010, x=0000000000000000, y=0000000000000000, z=0000000000000000
i=1011, x=0010110101000110, y=0010110100111101, z=0000000000000110
i=1011, x=0001011010100011, y=0001011010011110, z=0000000000000011
i=1011, x=0000101101010001, y=0000101101001111, z=0000000000000001
i=1011, x=0000010110101000, y=0000010110100111, z=0000000000000000
i=1011, x=0000001011010100, y=0000001011010011, z=0000000000000000
i=1011, x=0000000101101010, y=0000000101101001, z=0000000000000000
i=1011, x=0000000010110101, y=0000000010110100, z=0000000000000000
i=1011, x=0000000001011010, y=0000000001011010, z=0000000000000000
i=1011, x=0000000000101101, y=0000000000101101, z=0000000000000000
i=1011, x=0000000000010110, y=0000000000010110, z=0000000000000000
i=1011, x=0000000000001011, y=0000000000001011, z=0000000000000000
i=1011, x=0000000000000101, y=0000000000000101, z=0000000000000000
i=1011, x=0000000000000010, y=0000000000000010, z=0000000000000000
i=1011, x=0000000000000001, y=0000000000000001, z=0000000000000000
i=1011, x=0000000000000000, y=0000000000000000, z=0000000000000000
i=1100, x=0010110101000001, y=0010110101000010, z=1111111111111110
i=1100, x=0001011010100000, y=0001011010100001, z=0111111111111111
i=1100, x=0000101101010000, y=0000101101010000, z=0011111111111111
i=1100, x=0000010110101000, y=0000010110101000, z=0001111111111111
i=1100, x=0000001011010100, y=0000001011010100, z=0000111111111111
i=1100, x=0000000101101010, y=0000000101101010, z=0000011111111111
i=1100, x=0000000010110101, y=0000000010110101, z=0000001111111111
i=1100, x=0000000001011010, y=0000000001011010, z=0000000111111111
i=1100, x=0000000000101101, y=0000000000101101, z=0000000011111111
i=1100, x=0000000000010110, y=0000000000010110, z=0000000001111111
i=1100, x=0000000000001011, y=0000000000001011, z=0000000000111111
i=1100, x=0000000000000101, y=0000000000000101, z=0000000000011111
i=1100, x=0000000000000010, y=0000000000000010, z=0000000000001111
i=1100, x=0000000000000001, y=0000000000000001, z=0000000000000111
i=1100, x=0000000000000000, y=0000000000000000, z=0000000000000011
i=1100, x=0000000000000000, y=0000000000000000, z=0000000000000001
i=1100, x=0000000000000000, y=0000000000000000, z=0000000000000000
i=1101, x=0010110101000011, y=0010110101000000, z=0000000000000010
i=0000, x=0010011011011101, y=0000000000000000, z=0010000110000011
i=0000, x=0001001101101110, y=0000000000000000, z=0001000011000001
i=0000, x=0000100110110111, y=0000000000000000, z=0000100001100000
i=0000, x=0000010011011011, y=0000000000000000, z=0000010000110000
i=0000, x=0000001001101101, y=0000000000000000, z=0000001000011000
i=0000, x=0000000100110110, y=0000000000000000, z=0000000100001100
i=0000, x=0000000010011011, y=0000000000000000, z=0000000010000110
i=0000, x=0000000001001101, y=0000000000000000, z=0000000001000011
i=0000, x=0000000000100110, y=0000000000000000, z=0000000000100001
i=0000, x=0000000000010011, y=0000000000000000, z=0000000000010000
i=0000, x=0000000000001001, y=0000000000000000, z=0000000000001000
i=0000, x=0000000000000100, y=0000000000000000, z=0000000000000100
i=0000, x=0000000000000010, y=0000000000000000, z=0000000000000010
i=0000, x=0000000000000001, y=0000000000000000, z=0000000000000001
i=0000, x=0000000000000000, y=0000000000000000, z=0000000000000000
i=0001, x=0010011011011101, y=0010011011011101, z=1110111100111111
i=0001, x=0001001101101110, y=0001001101101110, z=0111011110011111
i=0001, x=0000100110110111, y=0000100110110111, z=0011101111001111
i=0001, x=0000010011011011, y=0000010011011011, z=0001110111100111
i=0001, x=0000001001101101, y=0000001001101101, z=0000111011110011
i=0001, x=0000000100110110, y=0000000100110110, z=0000011101111001
i=0001, x=0000000010011011, y=0000000010011011, z=0000001110111100
i=0001, x=0000000001001101, y=0000000001001101, z=0000000111011110
i=0001, x=0000000000100110, y=0000000000100110, z=0000000011101111
i=0001, x=0000000000010011, y=0000000000010011, z=0000000001110111
i=0001, x=0000000000001001, y=0000000000001001, z=0000000000111011
i=0001, x=0000000000000100, y=0000000000000100, z=0000000000011101
i=0001, x=0000000000000010, y=0000000000000010, z=0000000000001110
i=0001, x=0000000000000001, y=0000000000000001, z=0000000000000111
i=0001, x=0000000000000000, y=0000000000000000, z=0000000000000011
i=0001, x=0000000000000000, y=0000000000000000, z=0000000000000001
i=0001, x=0000000000000000, y=0000000000000000, z=0000000000000000
i=0010, x=0011101001001011, y=0001001101101111, z=0000110011101011
i=0010, x=0001110100100101, y=0000100110110111, z=0000011001110101
i=0010, x=0000111010010010, y=0000010011011011, z=0000001100111010
i=0010, x=0000011101001001, y=0000001001101101, z=0000000110011101
i=0010, x=0000001110100100, y=0000000100110110, z=0000000011001110
i=0010, x=0000000111010010, y=0000000010011011, z=0000000001100111
i=0010, x=0000000011101001, y=0000000001001101, z=0000000000110011
i=0010, x=0000000001110100, y=0000000000100110, z=0000000000011001
i=0010, x=0000000000111010, y=0000000000010011, z=0000000000001100
i=0010, x=0000000000011101, y=0000000000001001, z=0000000000000110
i=0010, x=0000000000001110, y=0000000000000100, z=0000000000000011
i=0010, x=0000000000000111, y=0000000000000010, z=0000000000000001
i=0010, x=0000000000000011, y=0000000000000001, z=0000000000000000
i=0010, x=0000000000000001, y=0000000000000000, z=0000000000000000
i=0010, x=0000000000000000, y=0000000000000000, z=0000000000000000
i=0011, x=0011010101110000, y=0010001000000001, z=1111110100111101
i=0011, x=0001101010111000, y=0001000100000000, z=0111111010011110
i=0011, x=0000110101011100, y=0000100010000000, z=0011111101001111
i=0011, x=0000011010101110, y=0000010001000000, z=0001111110100111
